{
    "name": "python-packaging",
    "buildsystem": "simple",
    "build-commands": [
        "pip3 install --verbose --exists-action=i --no-index --find-links=\"file://${PWD}\" --prefix=${FLATPAK_DEST} \"packaging\" --no-build-isolation"
    ],
    "sources": [
        {
            "type": "file",
            "url": "https://files.pythonhosted.org/packages/df/9e/d1a7217f69310c1db8fdf8ab396229f55a699ce34a203691794c5d1cad0c/packaging-21.3.tar.gz",
            "sha256": "dd47c42927d89ab911e606518907cc2d3a1f38bbd026385970643f9c5b8ecfeb"
        }
    ],
    "modules": [
        "python-pyparsing/python-pyparsing.json"
    ]
}